<?xml version="1.0" encoding="utf-8"?><svg xmlns="http://www.w3.org/2000/svg" xmlns:xlink="http://www.w3.org/1999/xlink" width="2101" height="1187" preserveAspectRatio="xMidYMid" viewBox="0 0 2101 1187" style="z-index:1;margin-right:-2px;display:block;background-repeat-y:initial;background-repeat-x:initial;animation-play-state:paused" ><g transform="translate(1050.5,593.5) scale(1,1) translate(-1050.5,-593.5)" style="transform:matrix(1, 0, 0, 1, 0, 0);animation-play-state:paused" ><linearGradient id="lg-0.23988847410405034" x1="0" x2="1" y1="0" y2="0" style="animation-play-state:paused" ><stop stop-color="#0d3e83" offset="0" style="animation-play-state:paused" ></stop>

  
<stop stop-color="#0d3e83" offset="1" style="animation-play-state:paused" ></stop></linearGradient>
<path d="M 0 0 L 0 1060.16 Q 210.1 1052.23 420.2 1023.3 T 840.4 771.597 T 1260.6 670.125 T 1680.8 600.239 T 2101 582.725 L 2101 0 Z" fill="url(#lg-0.23988847410405034)" opacity="0.4" style="opacity:0.4;animation-play-state:paused" ></path>
<path d="M 0 0 L 0 1103.17 Q 210.1 983.627 420.2 950.538 T 840.4 919.782 T 1260.6 794.067 T 1680.8 698.71 T 2101 451.737 L 2101 0 Z" fill="url(#lg-0.23988847410405034)" opacity="0.4" style="opacity:0.4;animation-play-state:paused" ></path>
<path d="M 0 0 L 0 1116.42 Q 210.1 949.061 420.2 928.297 T 840.4 921.712 T 1260.6 824.585 T 1680.8 746.671 T 2101 466.042 L 2101 0 Z" fill="url(#lg-0.23988847410405034)" opacity="0.4" style="opacity:0.4;animation-play-state:paused" ></path>
<path d="M 0 0 L 0 1112.31 Q 210.1 1041.45 420.2 1003.51 T 840.4 864.642 T 1260.6 693.548 T 1680.8 545.971 T 2101 456.556 L 2101 0 Z" fill="url(#lg-0.23988847410405034)" opacity="0.4" style="opacity:0.4;animation-play-state:paused" ></path>
<path d="M 0 0 L 0 1042.33 Q 210.1 1001.13 420.2 972.006 T 840.4 782.508 T 1260.6 748.843 T 1680.8 589.65 T 2101 509.976 L 2101 0 Z" fill="url(#lg-0.23988847410405034)" opacity="0.4" style="opacity:0.4;animation-play-state:paused" ></path></g></svg>